Regression modelling with two continuous explanatory variables | Data Analysis: Regression Modelling
…
The deterministic part of the model captures all the non-random structure in the data, i.e. the residuals have mean zero.

The scale of the variability of the residuals is constant at all values of the explanatory variables.

The residuals are normally distributed.

The residuals are independent.

The values of the explanatory variables are recorded without error.

First, we need to obtain the fitted values and residuals from our regression model:

regression.points <- get_regression_points(Balance.model)

# A tibble: 400 x 6
      ID Balance Limit Income Balance_hat residual
   <int>   <int> <int>  <dbl>       <dbl>    <dbl>
 1     1     333  3606   14.9        454.   -121. 
 2     2     903  6645  106.         559.    344. 
 3     3     580  7075  105.         683.   -103. 
 4     4     964  9504  149.         986.    -21.7
 5     5     331  4897   55.9        481.   -150. 
 6     6    1151  8047   80.2       1127.     23.6
 7     7     203  3388   21.0        349.   -146. 
 8     8     872  7114   71.4        948.    -76.0
 9     9     279  3300   15.1        371.    -92.2
10    10    1350  6819   71.1        873.    477. 
# ... with 390 more rows
# i Use `print(n = ...)` to see more rows
…
