Simple linear regression with one categorical explanatory variable | Data Analysis: Regression Modelling
…
Essentially, the estimates for each continent are known as offsets relative to the baseline category (Africa in this case). For example, the mean life expectancy for Africa is simply equal to the intercept term \(\widehat{\alpha} = 54.8\). However, the mean life expectancy for Asia is \(\widehat{\alpha} + \widehat{\beta}_{\mbox{Asia}} \cdot \mathbb{I}_{\mbox{Asia}}(x) = 54.8 + 15.9 \cdot 1 = 70.7\).

From the regression model, what is the mean life expectancy of the Americas?

 80.7 77.6 73.6

Assessing model fit

What do the fitted values \(\widehat{y}\) and the residuals \(y - \widehat{y}\) correspond to when we are dealing with a categorical explanatory variable? Let's explore the gapminder2007 data set in order to understand how they work.

# A tibble: 142 x 3
   country     continent lifeExp
   <fct>       <fct>       <dbl>
 1 Afghanistan Asia         43.8
 2 Albania     Europe       76.4
 3 Algeria     Africa       72.3
 4 Angola      Africa       42.7
 5 Argentina   Americas     75.3
 6 Australia   Oceania      81.2
 7 Austria     Europe       79.8
 8 Bahrain     Asia         75.6
 9 Bangladesh  Asia         64.1
10 Belgium     Europe       79.4
# ... with 132 more rows
# i Use `print(n = ...)` to see more rows

Here, we see the life expectancy of each country and the continent they are from. For example, let's remember the life expectancies of Afghanistan (43.8) and Bahrain (75.6). Now, we can obtain the fitted values and residuals in the same way we did previously:

regression_points <- get_regression_points(lifeExp.model)

# A tibble: 142 x 5
      ID lifeExp continent lifeExp_hat residual
   <int>   <dbl> <fct>           <dbl>    <dbl>
 1     1    43.8 Asia             70.7  -26.9  
 2     2    76.4 Europe           77.6   -1.23 
 3     3    72.3 Africa           54.8   17.5  
 4     4    42.7 Africa           54.8  -12.1  
 5     5    75.3 Americas         73.6    1.71 
 6     6    81.2 Oceania          80.7    0.516
 7     7    79.8 Europe           77.6    2.18 
 8     8    75.6 Asia             70.7    4.91 
 9     9    64.1 Asia             70.7   -6.67 
10    10    79.4 Europe           77.6    1.79 
# ... with 132 more rows
# i Use `print(n = ...)` to see more rows
…
